module gitlab.com/AntonZheleznov/jsonflat

go 1.18

require github.com/jessevdk/go-flags v1.5.0

require (
	github.com/davecgh/go-spew v1.1.1 // indirect
	github.com/pmezard/go-difflib v1.0.0 // indirect
	github.com/stretchr/objx v0.4.0 // indirect
	github.com/stretchr/testify v1.8.0 // indirect
	golang.org/x/sys v0.0.0-20210320140829-1e4c9ba3b0c4 // indirect
	gopkg.in/yaml.v3 v3.0.1 // indirect
)
